\relax 
\@writefile{toc}{\contentsline {section}{\numberline {1}Memo}{1}}
\newlabel{app:molsim}{{1}{1}}
\@writefile{toc}{\contentsline {subsection}{\numberline {1.1}Generation of a random polymer with a void}{1}}
\citation{Gursoy2014}
\@writefile{toc}{\contentsline {subsection}{\numberline {1.2}Theory on $S^d$}{5}}
\@writefile{toc}{\contentsline {subsubsection}{\numberline {1.2.1}Surface measure on $S^d$}{5}}
\@writefile{loa}{\contentsline {algorithm}{\numberline {1}{\ignorespaces C-SAC with void}}{6}}
\newlabel{fig:chain}{{1.1}{7}}
\@writefile{lof}{\contentsline {figure}{\numberline {1}{\ignorespaces One of the sample in a ensemble}}{7}}
\citation{Aistleitner2011}
\citation{Aistleitner2011}
\@writefile{toc}{\contentsline {subsubsection}{\numberline {1.2.2}Approximation by point sequence on $S^d$, Quasi Monte Carlo method}{9}}
\citation{Gursoy2014}
\@writefile{toc}{\contentsline {subsection}{\numberline {1.3}Fibonacci lattice}{10}}
\@writefile{toc}{\contentsline {section}{\numberline {2}References}{11}}
